{
    "dates": {
        "24h_velo": "Mardi-Mercredi S6 (22 et 23 octobre 2024)",
        "atelier_git": "Mardi S5 (15/10/2024)",
        "atelier_latex": "Mardi S3 (1/10/2024)",
        "game_jam": "Q2 2025 (date à préciser)",
        "geek_party": "Jeudi S9 (14/11/2024)",
        "install_party": "Jeudi S2 (26/09/2024)",
        "karwa": "Q2 2025 (date à préciser)",
        "space_day": "Q2 2025 (date à préciser)",
        "space_week": "Mardi S4 (08/10/2024)"
    },

    "places": {
        "24h_velo": "Louvain-la-Neuve",
        "atelier_git": "Salle informatique Darwin",
        "atelier_latex": "Salle informatique Darwin",
        "game_jam": "Lieu à déterminer",
        "geek_party": "Lieu à déterminer",
        "install_party": "Aditoire SUD08",
        "karwa": "Lieu à déterminer",
        "space_day": "Lieu à déterminer",
        "space_week": "Auditoire MERC11"
    }
}